…
library(broom)
```

```
## Warning: package 'broom' was built under R version 3.4.4
```

```r
stats %>% mutate(summary_model = map(lm_model, tidy)) %>% unnest(summary_model)
```

```
## # A tibble: 62 x 6
##    regionfao term         estimate std.error statistic  p.value
##        <int> <chr>           <dbl>     <dbl>     <dbl>    <dbl>
##  1        37 (Intercept) -0.0627    0.177       -0.354 7.25e- 1
##  2        37 vbk         -0.0991    0.127       -0.783 4.36e- 1
##  3        37 maxl         0.000165  0.000152     1.09  2.82e- 1
##  4        37 temp         0.0241    0.0110       2.19  3.28e- 2
##  5        77 (Intercept)  0.357     0.112        3.19  1.76e- 3
##  6        77 vbk         -0.198     0.0621      -3.19  1.79e- 3
##  7        77 maxl        -0.000497  0.000116    -4.30  3.36e- 5
##  8        77 temp         0.0135    0.00575      2.35  2.05e- 2
##  9        47 (Intercept)  0.657     0.0877       7.50  3.10e-11
## 10        47 vbk         -0.250     0.131       -1.92  5.80e- 2
## # ... with 52 more rows
```
…
